Saldo migratorio
…
movilidad_loc <- movilidad_ageb |>
  group_by(source = substr(source, 1, 9), target = substr(target, 1, 9)) |>
  summarise(w = sum(w, na.rm = TRUE), .groups = "drop")

movilidad_loc

## # A tibble: 219 × 3
##    source    target        w
##    <chr>     <chr>     <int>
##  1 310020001 310020001   674
##  2 310020001 310130001     4
##  3 310020001 310380001    12
##  4 310020001 310390001     1
##  5 310020001 310410001    54
##  6 310020001 310500001  1967
##  7 310020001 310500075     4
##  8 310020001 310500077     1
##  9 310020001 310500084    16
## 10 310020001 310500093    19
## # ℹ 209 more rows
…
